{
  "BurstVersion": "ed7d93ab-72ae-4d46-9fc9-027b31698d75",
  "Assemblies": [
    {
      "FullName": "UnityEngine.CoreModule, Version=0.0.0.0, Culture=neutral, PublicKeyToken=null",
      "LastWriteTime": "2022-06-30T02:30:34Z"
    },
    {
      "FullName": "Unity.RenderPipelines.Universal.Runtime, Version=0.0.0.0, Culture=neutral, PublicKeyToken=null",
      "LastWriteTime": "2023-08-07T17:17:32.3991778Z"
    },
    {
      "FullName": "mscorlib, Version=4.0.0.0, Culture=neutral, PublicKeyToken=b77a5c561934e089",
      "LastWriteTime": "2022-06-30T02:10:04Z"
    },
    {
      "FullName": "Unity.Mathematics, Version=1.0.0.0, Culture=neutral, PublicKeyToken=null",
      "LastWriteTime": "2023-08-07T17:17:31.9663173Z"
    },
    {
      "FullName": "netstandard, Version=2.1.0.0, Culture=neutral, PublicKeyToken=cc7b13ffcd2ddd51",
      "LastWriteTime": "2022-06-30T02:10:04Z"
    },
    {
      "FullName": "mscorlib, Version=2.0.0.0, Culture=neutral, PublicKeyToken=b77a5c561934e089",
      "LastWriteTime": "2022-06-30T02:10:04Z"
    },
    {
      "FullName": "Unity.Burst, Version=0.0.0.0, Culture=neutral, PublicKeyToken=null",
      "LastWriteTime": "2023-08-07T17:17:32.0885009Z"
    },
    {
      "FullName": "mscorlib, Version=0.0.0.0, Culture=neutral, PublicKeyToken=null",
      "LastWriteTime": "2022-06-30T02:10:04Z"
    }
  ],
  "Functions": [
    {
      "FullName": "Unity.Jobs.IJobForExtensions+ForJobStruct`1[[UnityEngine.Rendering.Universal.LightExtractionJob, Unity.RenderPipelines.Universal.Runtime, Version=0.0.0.0, Culture=neutral, PublicKeyToken=null]], UnityEngine.CoreModule, Version=0.0.0.0, Culture=neutral, PublicKeyToken=null::Execute(UnityEngine.Rendering.Universal.LightExtractionJob&, Unity.RenderPipelines.Universal.Runtime, Version=0.0.0.0, Culture=neutral, PublicKeyToken=null|System.IntPtr, mscorlib, Version=4.0.0.0, Culture=neutral, PublicKeyToken=b77a5c561934e089|System.IntPtr, mscorlib, Version=4.0.0.0, Culture=neutral, PublicKeyToken=b77a5c561934e089|Unity.Jobs.LowLevel.Unsafe.JobRanges&, UnityEngine.CoreModule, Version=0.0.0.0, Culture=neutral, PublicKeyToken=null|System.Int32, mscorlib, Version=4.0.0.0, Culture=neutral, PublicKeyToken=b77a5c561934e089)",
      "ModuleOptionsHash": 15221144590354301703,
      "ModuleHash": "5575510e4e509f21df59b131496a4d4c",
      "LinkName": "BE03A27DBA873915",
      "AssemblyDependencyIndices": [
        0,
        1,
        2,
        3,
        4,
        5
      ]
    },
    {
      "FullName": "Unity.Burst.Intrinsics.X86, Unity.Burst, Version=0.0.0.0, Culture=neutral, PublicKeyToken=null::DoSetCSRTrampoline(System.Int32, mscorlib, Version=4.0.0.0, Culture=neutral, PublicKeyToken=b77a5c561934e089)",
      "ModuleOptionsHash": 15221144590354301703,
      "ModuleHash": "da6d09fa62f771af37148dc7083c43c3",
      "LinkName": "801E9A000BB37B05",
      "AssemblyDependencyIndices": [
        6,
        4,
        2
      ]
    },
    {
      "FullName": "Unity.Jobs.IJobForExtensions+ForJobStruct`1[[UnityEngine.Rendering.Universal.MinMaxZJob, Unity.RenderPipelines.Universal.Runtime, Version=0.0.0.0, Culture=neutral, PublicKeyToken=null]], UnityEngine.CoreModule, Version=0.0.0.0, Culture=neutral, PublicKeyToken=null::Execute(UnityEngine.Rendering.Universal.MinMaxZJob&, Unity.RenderPipelines.Universal.Runtime, Version=0.0.0.0, Culture=neutral, PublicKeyToken=null|System.IntPtr, mscorlib, Version=4.0.0.0, Culture=neutral, PublicKeyToken=b77a5c561934e089|System.IntPtr, mscorlib, Version=4.0.0.0, Culture=neutral, PublicKeyToken=b77a5c561934e089|Unity.Jobs.LowLevel.Unsafe.JobRanges&, UnityEngine.CoreModule, Version=0.0.0.0, Culture=neutral, PublicKeyToken=null|System.Int32, mscorlib, Version=4.0.0.0, Culture=neutral, PublicKeyToken=b77a5c561934e089)",
      "ModuleOptionsHash": 15221144590354301703,
      "ModuleHash": "3dda3d8c2f4d4b6e86c73a343936c270",
      "LinkName": "A03F6A9F19CA13EF",
      "AssemblyDependencyIndices": [
        0,
        1,
        2,
        3,
        4,
        5
      ]
    },
    {
      "FullName": "Unity.Jobs.IJobExtensions+JobStruct`1[[UnityEngine.Rendering.Universal.DecalCreateDrawCallSystem+DrawCallJob, Unity.RenderPipelines.Universal.Runtime, Version=0.0.0.0, Culture=neutral, PublicKeyToken=null]], UnityEngine.CoreModule, Version=0.0.0.0, Culture=neutral, PublicKeyToken=null::Execute(UnityEngine.Rendering.Universal.DecalCreateDrawCallSystem+DrawCallJob&, Unity.RenderPipelines.Universal.Runtime, Version=0.0.0.0, Culture=neutral, PublicKeyToken=null|System.IntPtr, mscorlib, Version=4.0.0.0, Culture=neutral, PublicKeyToken=b77a5c561934e089|System.IntPtr, mscorlib, Version=4.0.0.0, Culture=neutral, PublicKeyToken=b77a5c561934e089|Unity.Jobs.LowLevel.Unsafe.JobRanges&, UnityEngine.CoreModule, Version=0.0.0.0, Culture=neutral, PublicKeyToken=null|System.Int32, mscorlib, Version=4.0.0.0, Culture=neutral, PublicKeyToken=b77a5c561934e089)",
      "ModuleOptionsHash": 15221144590354301703,
      "ModuleHash": "24e6eb3f6e0c959629c3ec9ab0974ea5",
      "LinkName": "76EDAD8C20800D03",
      "AssemblyDependencyIndices": [
        0,
        1,
        2,
        4,
        3,
        5
      ]
    },
    {
      "FullName": "Unity.Jobs.IJobExtensions+JobStruct`1[[UnityEngine.Rendering.Universal.RadixSortJob, Unity.RenderPipelines.Universal.Runtime, Version=0.0.0.0, Culture=neutral, PublicKeyToken=null]], UnityEngine.CoreModule, Version=0.0.0.0, Culture=neutral, PublicKeyToken=null::Execute(UnityEngine.Rendering.Universal.RadixSortJob&, Unity.RenderPipelines.Universal.Runtime, Version=0.0.0.0, Culture=neutral, PublicKeyToken=null|System.IntPtr, mscorlib, Version=4.0.0.0, Culture=neutral, PublicKeyToken=b77a5c561934e089|System.IntPtr, mscorlib, Version=4.0.0.0, Culture=neutral, PublicKeyToken=b77a5c561934e089|Unity.Jobs.LowLevel.Unsafe.JobRanges&, UnityEngine.CoreModule, Version=0.0.0.0, Culture=neutral, PublicKeyToken=null|System.Int32, mscorlib, Version=4.0.0.0, Culture=neutral, PublicKeyToken=b77a5c561934e089)",
      "ModuleOptionsHash": 15221144590354301703,
      "ModuleHash": "d1798b500498e74c5ae1893e60b31254",
      "LinkName": "61C3A28A28E7C7BF",
      "AssemblyDependencyIndices": [
        0,
        1,
        7,
        2,
        4,
        5
      ]
    },
    {
      "FullName": "Unity.Jobs.IJobForExtensions+ForJobStruct`1[[UnityEngine.Rendering.Universal.SliceCombineJob, Unity.RenderPipelines.Universal.Runtime, Version=0.0.0.0, Culture=neutral, PublicKeyToken=null]], UnityEngine.CoreModule, Version=0.0.0.0, Culture=neutral, PublicKeyToken=null::Execute(UnityEngine.Rendering.Universal.SliceCombineJob&, Unity.RenderPipelines.Universal.Runtime, Version=0.0.0.0, Culture=neutral, PublicKeyToken=null|System.IntPtr, mscorlib, Version=4.0.0.0, Culture=neutral, PublicKeyToken=b77a5c561934e089|System.IntPtr, mscorlib, Version=4.0.0.0, Culture=neutral, PublicKeyToken=b77a5c561934e089|Unity.Jobs.LowLevel.Unsafe.JobRanges&, UnityEngine.CoreModule, Version=0.0.0.0, Culture=neutral, PublicKeyToken=null|System.Int32, mscorlib, Version=4.0.0.0, Culture=neutral, PublicKeyToken=b77a5c561934e089)",
      "ModuleOptionsHash": 15221144590354301703,
      "ModuleHash": "7df7725dea9bbbc3e48e721b1d364525",
      "LinkName": "84AB01371756165C",
      "AssemblyDependencyIndices": [
        0,
        1,
        2,
        3,
        4,
        5
      ]
    },
    {
      "FullName": "Unity.Jobs.IJobForExtensions+ForJobStruct`1[[UnityEngine.Rendering.Universal.ZBinningJob, Unity.RenderPipelines.Universal.Runtime, Version=0.0.0.0, Culture=neutral, PublicKeyToken=null]], UnityEngine.CoreModule, Version=0.0.0.0, Culture=neutral, PublicKeyToken=null::Execute(UnityEngine.Rendering.Universal.ZBinningJob&, Unity.RenderPipelines.Universal.Runtime, Version=0.0.0.0, Culture=neutral, PublicKeyToken=null|System.IntPtr, mscorlib, Version=4.0.0.0, Culture=neutral, PublicKeyToken=b77a5c561934e089|System.IntPtr, mscorlib, Version=4.0.0.0, Culture=neutral, PublicKeyToken=b77a5c561934e089|Unity.Jobs.LowLevel.Unsafe.JobRanges&, UnityEngine.CoreModule, Version=0.0.0.0, Culture=neutral, PublicKeyToken=null|System.Int32, mscorlib, Version=4.0.0.0, Culture=neutral, PublicKeyToken=b77a5c561934e089)",
      "ModuleOptionsHash": 15221144590354301703,
      "ModuleHash": "7223f18de1ad9fb3fd8186423e860401",
      "LinkName": "AE539C59A9E52E70",
      "AssemblyDependencyIndices": [
        0,
        1,
        2,
        4,
        3,
        5
      ]
    },
    {
      "FullName": "Unity.Jobs.IJobForExtensions+ForJobStruct`1[[UnityEngine.Rendering.Universal.ReorderJob`1[[UnityEngine.Rendering.VisibleLight, UnityEngine.CoreModule, Version=0.0.0.0, Culture=neutral, PublicKeyToken=null]], Unity.RenderPipelines.Universal.Runtime, Version=0.0.0.0, Culture=neutral, PublicKeyToken=null]], UnityEngine.CoreModule, Version=0.0.0.0, Culture=neutral, PublicKeyToken=null::Execute(UnityEngine.Rendering.Universal.ReorderJob`1[[UnityEngine.Rendering.VisibleLight, UnityEngine.CoreModule, Version=0.0.0.0, Culture=neutral, PublicKeyToken=null]]&, Unity.RenderPipelines.Universal.Runtime, Version=0.0.0.0, Culture=neutral, PublicKeyToken=null|System.IntPtr, mscorlib, Version=4.0.0.0, Culture=neutral, PublicKeyToken=b77a5c561934e089|System.IntPtr, mscorlib, Version=4.0.0.0, Culture=neutral, PublicKeyToken=b77a5c561934e089|Unity.Jobs.LowLevel.Unsafe.JobRanges&, UnityEngine.CoreModule, Version=0.0.0.0, Culture=neutral, PublicKeyToken=null|System.Int32, mscorlib, Version=4.0.0.0, Culture=neutral, PublicKeyToken=b77a5c561934e089)",
      "ModuleOptionsHash": 15221144590354301703,
      "ModuleHash": "189da774cebabd97fe165b5a6fa200b5",
      "LinkName": "D61D1C0A6F02814B",
      "AssemblyDependencyIndices": [
        0,
        1,
        2,
        5,
        4
      ]
    },
    {
      "FullName": "Unity.Jobs.IJobForExtensions+ForJobStruct`1[[UnityEngine.Rendering.Universal.SliceCullingJob, Unity.RenderPipelines.Universal.Runtime, Version=0.0.0.0, Culture=neutral, PublicKeyToken=null]], UnityEngine.CoreModule, Version=0.0.0.0, Culture=neutral, PublicKeyToken=null::Execute(UnityEngine.Rendering.Universal.SliceCullingJob&, Unity.RenderPipelines.Universal.Runtime, Version=0.0.0.0, Culture=neutral, PublicKeyToken=null|System.IntPtr, mscorlib, Version=4.0.0.0, Culture=neutral, PublicKeyToken=b77a5c561934e089|System.IntPtr, mscorlib, Version=4.0.0.0, Culture=neutral, PublicKeyToken=b77a5c561934e089|Unity.Jobs.LowLevel.Unsafe.JobRanges&, UnityEngine.CoreModule, Version=0.0.0.0, Culture=neutral, PublicKeyToken=null|System.Int32, mscorlib, Version=4.0.0.0, Culture=neutral, PublicKeyToken=b77a5c561934e089)",
      "ModuleOptionsHash": 15221144590354301703,
      "ModuleHash": "c6d0e7a3afb781403b1903c531d61a2d",
      "LinkName": "E194DDA76BFCD7EC",
      "AssemblyDependencyIndices": [
        0,
        1,
        2,
        3,
        4,
        5
      ]
    },
    {
      "FullName": "Unity.Burst.Intrinsics.X86, Unity.Burst, Version=0.0.0.0, Culture=neutral, PublicKeyToken=null::DoGetCSRTrampoline()",
      "ModuleOptionsHash": 15221144590354301703,
      "ModuleHash": "a2f3b2a31c9e37ae495681a3f2c843c1",
      "LinkName": "CDCA4A5193BE5947",
      "AssemblyDependencyIndices": [
        6,
        4,
        2
      ]
    },
    {
      "FullName": "UnityEngine.Jobs.IJobParallelForTransformExtensions+TransformParallelForLoopStruct`1[[UnityEngine.Rendering.Universal.DecalUpdateCachedSystem+UpdateTransformsJob, Unity.RenderPipelines.Universal.Runtime, Version=0.0.0.0, Culture=neutral, PublicKeyToken=null]], UnityEngine.CoreModule, Version=0.0.0.0, Culture=neutral, PublicKeyToken=null::Execute(UnityEngine.Rendering.Universal.DecalUpdateCachedSystem+UpdateTransformsJob&, Unity.RenderPipelines.Universal.Runtime, Version=0.0.0.0, Culture=neutral, PublicKeyToken=null|System.IntPtr, mscorlib, Version=4.0.0.0, Culture=neutral, PublicKeyToken=b77a5c561934e089|System.IntPtr, mscorlib, Version=4.0.0.0, Culture=neutral, PublicKeyToken=b77a5c561934e089|Unity.Jobs.LowLevel.Unsafe.JobRanges&, UnityEngine.CoreModule, Version=0.0.0.0, Culture=neutral, PublicKeyToken=null|System.Int32, mscorlib, Version=4.0.0.0, Culture=neutral, PublicKeyToken=b77a5c561934e089)",
      "ModuleOptionsHash": 15221144590354301703,
      "ModuleHash": "a5de93127c53fda18c779ed552e3a876",
      "LinkName": "15301ED6F7D48D74",
      "AssemblyDependencyIndices": [
        0,
        1,
        2,
        4,
        3,
        5
      ]
    },
    {
      "FullName": "Unity.Jobs.IJobForExtensions+ForJobStruct`1[[UnityEngine.Rendering.Universal.ReorderJob`1[[UnityEngine.Rendering.Universal.LightMinMaxZ, Unity.RenderPipelines.Universal.Runtime, Version=0.0.0.0, Culture=neutral, PublicKeyToken=null]], Unity.RenderPipelines.Universal.Runtime, Version=0.0.0.0, Culture=neutral, PublicKeyToken=null]], UnityEngine.CoreModule, Version=0.0.0.0, Culture=neutral, PublicKeyToken=null::Execute(UnityEngine.Rendering.Universal.ReorderJob`1[[UnityEngine.Rendering.Universal.LightMinMaxZ, Unity.RenderPipelines.Universal.Runtime, Version=0.0.0.0, Culture=neutral, PublicKeyToken=null]]&, Unity.RenderPipelines.Universal.Runtime, Version=0.0.0.0, Culture=neutral, PublicKeyToken=null|System.IntPtr, mscorlib, Version=4.0.0.0, Culture=neutral, PublicKeyToken=b77a5c561934e089|System.IntPtr, mscorlib, Version=4.0.0.0, Culture=neutral, PublicKeyToken=b77a5c561934e089|Unity.Jobs.LowLevel.Unsafe.JobRanges&, UnityEngine.CoreModule, Version=0.0.0.0, Culture=neutral, PublicKeyToken=null|System.Int32, mscorlib, Version=4.0.0.0, Culture=neutral, PublicKeyToken=b77a5c561934e089)",
      "ModuleOptionsHash": 15221144590354301703,
      "ModuleHash": "bd8e652a0da5c64e6545838d3a55369f",
      "LinkName": "5FCDD8F068DD2902",
      "AssemblyDependencyIndices": [
        0,
        1,
        2,
        4,
        5
      ]
    }
  ]
}